id;date_of_application;other_info;application_resume_file_name
1;2021-06-04T10:11:09;Tuna;Tools
2;2021-06-04T14:51:50;a;utilize Handcrafted
3;2021-06-04T11:18:48;Bedfordshire;end-to-end Kwacha orchid
4;2021-06-04T13:29:51;B2B;Grocery compelling Fresh
5;2021-06-03T23:50:56;asymmetric Music;Sharable Poitou-Charentes Finlande
6;2021-06-04T15:58:10;Tuvalu Computers c;Bretagne Avon Decentralized
7;2021-06-04T22:00:18;a auxiliary Papouasie-Nouvelle-Guinée;Cambridgeshire Litas
8;2021-06-04T01:11:48;a;Pays
9;2021-06-04T06:37:43;cross-platform magenta;sky
10;2021-06-04T18:12:31;b a online;Polarised orchid experiences
