id;certification_name;issuing_body;date_of_issue;expiration_date;credential_id
1;c content;Synchronised a Tuna;2021-06-04;2021-06-04;circuit Charlemagne
2;application digital;solid Handmade;2021-06-04;2021-06-04;Toys
3;Licensed open-source Berkshire;Colon matrix card;2021-06-04;2021-06-04;Health
4;Kids;Guatemala microchip calculate;2021-06-04;2021-06-04;de
5;generating Berkshire;Seychelles orange;2021-06-04;2021-06-04;Belgique Account local
6;Market executive hack;b;2021-06-04;2021-06-04;Joubert
7;bluetooth Designer Handcrafted;navigating;2021-06-04;2021-06-04;b Unbranded driver
8;revolutionary;Designer tan Unbranded;2021-06-04;2021-06-04;synergistic Industrial a
9;parse Assistant;fault-tolerant;2021-06-04;2021-06-04;Shoes
10;maroon;a;2021-06-04;2021-06-04;Ariary a
