id;school;diploma;field_of_study;start_year;end_year;description
1;neural Cotton;morph;b Poitou-Charentes;2021-06-04;2021-06-04;open-source Gorgeous Serbie
2;overriding Incredible;b Refined;Frozen Du;2021-06-04;2021-06-04;engage calculating
3;open-source Beauty toolset;Pastourelle b scale;functionalities loyalty;2021-06-04;2021-06-04;cyan
4;transmit deposit;Adaptive Nouvelle-Zélande;Borders;2021-06-04;2021-06-04;withdrawal Architecte 24/7
5;Analyste;Car payment;c Administrateur generating;2021-06-04;2021-06-04;Superviseur
6;initiatives orchid;navigate;plum;2021-06-04;2021-06-04;c Liechtenstein Small
7;metrics invoice Cambridgeshire;Tuna methodology b;Plastic 1080p;2021-06-04;2021-06-04;Bourgogne aggregate Unbranded
8;a Champagne-Ardenne Steel;payment;project Loire generating;2021-06-04;2021-06-04;Credit benchmark Mouffetard
9;b supply-chains Montorgueil;optical overriding;b Soap;2021-06-04;2021-06-04;b Steel
10;XSS Gorgeous;Soudan Cheese Serbie;synthesizing Account Loan;2021-06-04;2021-06-04;Laos Birr
