id;name;description;type
1;migration firmware HDD;reintermediate programming;mesh hard
2;moderator auxiliary Pizza;optical;Soft
3;teal;Handmade RSS Buckinghamshire;Irlande
4;foreground Market Borders;target Avon Computers;innovative Rubber a
5;plug-and-play Bedfordshire;matrix Ouguiya;index d'Abbeville Account
6;Metal;upward-trending c Netherlands;a AI
7;capability;bypassing technologies BEAC;Salad Loan
8;b purple;frame;Credit
9;SMS Pérou;incubate;stable a Plastic
10;Small logistical Chips;Account;Investment
