{
  "name": "Experience",
  "fields": [
    {
      "fieldName": "startDate",
      "fieldType": "LocalDate"
    },
    {
      "fieldName": "endDate",
      "fieldType": "LocalDate"
    },
    {
      "fieldName": "jobTitle",
      "fieldType": "String"
    },
    {
      "fieldName": "nameCompany",
      "fieldType": "String"
    },
    {
      "fieldName": "location",
      "fieldType": "String"
    },
    {
      "fieldName": "description",
      "fieldType": "String"
    }
  ],
  "relationships": [
    {
      "relationshipType": "many-to-many",
      "otherEntityName": "profile",
      "otherEntityRelationshipName": "experience",
      "relationshipName": "profile",
      "otherEntityField": "id",
      "ownerSide": false
    }
  ],
  "entityTableName": "experience",
  "dto": "mapstruct",
  "pagination": "no",
  "service": "serviceImpl",
  "jpaMetamodelFiltering": false,
  "fluentMethods": true,
  "readOnly": false,
  "embedded": false,
  "applications": "*",
  "changelogDate": "20210604232137"
}
